carry-ripple/simulation/qsim/carry_ripple_4bit_adder.msim.vcd
$comment
	File created using the following command:
		vcd file carry_ripple_4bit_adder.msim.vcd -direction
$end
$date
	Thu Oct 31 12:57:20 2019
$end
$version
	ModelSim Version 10.5b
$end
$timescale
	1ps
$end

$scope module carry_ripple_4bit_adder_vhd_vec_tst $end
$var wire 1 ! A [3] $end
$var wire 1 " A [2] $end
$var wire 1 # A [1] $end
$var wire 1 $ A [0] $end
$var wire 1 % B [3] $end
$var wire 1 & B [2] $end
$var wire 1 ' B [1] $end
$var wire 1 ( B [0] $end
$var wire 1 ) CARRY_IN $end
$var wire 1 * CARRY_OUT $end
$var wire 1 + S [3] $end
$var wire 1 , S [2] $end
$var wire 1 - S [1] $end
$var wire 1 . S [0] $end

$scope module i1 $end
$var wire 1 / gnd $end
$var wire 1 0 vcc $end
$var wire 1 1 unknown $end
$var wire 1 2 devoe $end
$var wire 1 3 devclrn $end
$var wire 1 4 devpor $end
$var wire 1 5 ww_devoe $end
$var wire 1 6 ww_devclrn $end
$var wire 1 7 ww_devpor $end
$var wire 1 8 ww_A [3] $end
$var wire 1 9 ww_A [2] $end
$var wire 1 : ww_A [1] $end
$var wire 1 ; ww_A [0] $end
$var wire 1 < ww_B [3] $end
$var wire 1 = ww_B [2] $end
$var wire 1 > ww_B [1] $end
$var wire 1 ? ww_B [0] $end
$var wire 1 @ ww_CARRY_IN $end
$var wire 1 A ww_S [3] $end
$var wire 1 B ww_S [2] $end
$var wire 1 C ww_S [1] $end
$var wire 1 D ww_S [0] $end
$var wire 1 E ww_CARRY_OUT $end
$var wire 1 F \S[0]~output_o\ $end
$var wire 1 G \S[1]~output_o\ $end
$var wire 1 H \S[2]~output_o\ $end
$var wire 1 I \S[3]~output_o\ $end
$var wire 1 J \CARRY_OUT~output_o\ $end
$var wire 1 K \A[0]~input_o\ $end
$var wire 1 L \B[0]~input_o\ $end
$var wire 1 M \CARRY_IN~input_o\ $end
$var wire 1 N \FA1|ha2|SUM~0_combout\ $end
$var wire 1 O \B[1]~input_o\ $end
$var wire 1 P \A[1]~input_o\ $end
$var wire 1 Q \FA1|CARRY~0_combout\ $end
$var wire 1 R \FA2|ha2|SUM~combout\ $end
$var wire 1 S \FA2|CARRY~0_combout\ $end
$var wire 1 T \A[2]~input_o\ $end
$var wire 1 U \B[2]~input_o\ $end
$var wire 1 V \FA3|ha2|SUM~combout\ $end
$var wire 1 W \FA3|CARRY~0_combout\ $end
$var wire 1 X \A[3]~input_o\ $end
$var wire 1 Y \B[3]~input_o\ $end
$var wire 1 Z \FA4|ha2|SUM~combout\ $end
$var wire 1 [ \FA4|CARRY~0_combout\ $end
$upscope $end
$upscope $end
$enddefinitions $end
#0
$dumpvars
1)
1*
0/
10
x1
12
13
14
15
16
17
1@
1E
1F
0G
0H
1I
1J
1K
1L
1M
1N
1O
0P
1Q
0R
1S
1T
0U
0V
1W
1X
1Y
1Z
1[
1!
1"
0#
1$
1%
0&
1'
1(
18
19
0:
1;
1<
0=
1>
1?
1A
0B
0C
1D
1+
0,
0-
1.
$end
#50000
0$
1&
0;
1=
1U
0K
0N
1V
1H
0F
1B
0D
0.
1,
#100000
1$
0"
0%
0(
0)
1;
09
0?
0<
0@
0M
0Y
0L
0T
1K
0V
0Z
1N
0Q
1F
0I
0H
1R
0S
1D
0A
0B
1G
1V
0W
1.
0,
0+
1C
1H
1Z
0[
1-
1B
0J
1I
1,
0E
1A
0*
1+
#150000
1"
1(
0&
0!
0'
19
08
1?
0>
0=
0U
0O
1L
0X
1T
0Z
0N
1Q
0R
0G
0F
0I
1R
0C
0D
0A
1G
0.
0-
0+
1C
1-
#200000
0(
1'
0$
1#
0?
1>
0;
1:
1P
0K
1O
0L
0Q
1S
0V
1W
0R
0G
0H
1Z
0C
0B
1I
0-
0,
1A
1+
#250000
1(
0'
0"
1&
1!
1)
1?
0>
1=
09
18
1@
1M
1X
0T
1U
0O
1L
1R
0S
0Z
1[
1Q
1J
0I
1G
0R
1S
1V
0W
1E
0A
1C
1H
0G
1Z
0[
0V
1W
1*
1-
0+
1B
0C
0H
0J
1I
0Z
1[
0-
1,
0B
0E
1A
1J
0I
0,
1+
0*
1E
0A
1*
0+
#300000
0!
0#
1%
0:
08
1<
1Y
0X
0P
1R
0S
1G
1V
0W
1C
1H
1Z
0[
1-
1B
0J
1I
1,
0E
1A
0*
1+
#350000
1!
0%
0(
1'
1"
0)
19
18
0?
1>
0<
0@
0M
0Y
1O
0L
1X
1T
0V
1W
0R
1S
0Q
0G
0H
1R
0S
1V
0Z
1[
0C
0B
1J
0I
1H
1G
0V
0-
0,
1E
0A
1B
1C
0H
1*
1-
1,
0+
0B
0,
#400000
1%
0'
0"
1)
1#
1$
0>
1<
1;
1:
09
1@
1M
0T
1P
1K
1Y
0O
1Z
1V
0W
1Q
1H
1I
0R
1S
0Z
1B
1A
0I
0G
0V
1W
1,
1+
0A
0C
0H
1Z
0-
0+
0B
1I
0,
1A
1+
#450000
0%
1'
1"
0)
0#
0!
1>
0<
0:
19
08
0@
0M
0X
1T
0P
0Y
1O
1V
0[
1N
0Q
1F
0J
1H
1R
0S
1D
0E
1B
1G
0V
1.
1,
0*
1C
0H
1-
0B
0,
#500000
1%
0'
1#
0$
0&
0>
0=
1<
0;
1:
1P
0K
1Y
0U
0O
1V
0W
0Z
1[
0N
0F
1J
0I
1H
1Z
0[
0D
1E
0A
1B
0J
1I
0.
1,
0+
1*
0E
1A
0*
1+
#550000
0%
1'
0#
1>
0<
0:
0P
0Y
1O
0Z
0I
0A
0+
#600000
0'
1&
0"
1)
1!
0>
1=
09
18
1@
1M
1X
0T
1U
0O
0R
1Z
1N
1F
1I
0G
1D
1A
0C
1.
0-
1+
#650000
1"
0)
0!
1$
1;
19
08
0@
0M
0X
1T
1K
0V
1W
0Z
0I
0H
1Z
0A
0B
1I
0,
0+
1A
1+
#700000
1)
1!
0$
1'
0&
1#
1@
0;
1:
18
1>
0=
0U
1O
1X
1P
0K
1M
0Z
1[
1S
1V
0W
1H
1J
0I
1Z
0[
0V
1W
1B
1E
0A
0H
0J
1I
0Z
1[
1,
0+
1*
0B
0E
1A
1J
0I
0,
1+
0*
1E
0A
1*
0+
#750000
1$
0'
1&
1%
1;
0>
1=
1<
1Y
1U
0O
1K
0N
1Q
1R
0S
1V
1Z
1I
1H
1G
0F
0V
0R
1S
1A
1B
1C
0D
0G
0H
1V
0.
1-
1,
1+
0C
0B
1H
0-
0,
1B
1,
#800000
0&
0)
0#
0=
0@
0:
0P
0M
0U
0V
1N
0Q
1R
0S
1G
1F
0H
1V
0W
0R
1C
1D
0B
0G
1H
0Z
1.
1-
0,
0C
1B
0I
0-
1,
0A
0+
#850000
1)
1#
0$
1'
0%
1(
1@
0;
1:
1?
1>
0<
0Y
1O
1L
1P
0K
1M
0N
1Q
1S
1Z
0[
0J
1I
0F
0V
1W
1R
0E
1A
0D
1G
0H
0Z
1[
0*
0.
1+
1C
0B
1J
0I
1-
0,
1E
0A
1*
0+
#900000
0#
1%
1&
0:
1=
1<
1Y
1U
0P
0R
1V
1Z
1I
1H
0G
1A
1B
0C
0-
1,
1+
#950000
0(
0!
0?
08
0X
0L
1N
0Q
0Z
0I
1F
1R
0S
0A
1D
1G
0V
1.
0+
1C
0H
1-
0B
0,
