cronometro/simulation/qsim/cronometro.msim.vcd
$comment
	File created using the following command:
		vcd file cronometro.msim.vcd -direction
$end
$date
	Sat Feb  1 09:47:08 2020
$end
$version
	ModelSim Version 10.5b
$end
$timescale
	1ps
$end

$scope module cronometro_vhd_vec_tst $end
$var wire 1 ! clock $end
$var wire 1 " out_sig $end

$scope module i1 $end
$var wire 1 # gnd $end
$var wire 1 $ vcc $end
$var wire 1 % unknown $end
$var wire 1 & devoe $end
$var wire 1 ' devclrn $end
$var wire 1 ( devpor $end
$var wire 1 ) ww_devoe $end
$var wire 1 * ww_devclrn $end
$var wire 1 + ww_devpor $end
$var wire 1 , ww_clock $end
$var wire 1 - ww_out_sig $end
$var wire 1 . \out_sig~output_o\ $end
$var wire 1 / \clock~input_o\ $end
$var wire 1 0 \Add0~0_combout\ $end
$var wire 1 1 \Add0~1\ $end
$var wire 1 2 \Add0~2_combout\ $end
$var wire 1 3 \Add0~3\ $end
$var wire 1 4 \Add0~4_combout\ $end
$var wire 1 5 \Add0~5\ $end
$var wire 1 6 \Add0~6_combout\ $end
$var wire 1 7 \Equal0~0_combout\ $end
$var wire 1 8 \Add0~7\ $end
$var wire 1 9 \Add0~8_combout\ $end
$var wire 1 : \Add0~9\ $end
$var wire 1 ; \Add0~10_combout\ $end
$var wire 1 < \Add0~11\ $end
$var wire 1 = \Add0~12_combout\ $end
$var wire 1 > \Add0~13\ $end
$var wire 1 ? \Add0~14_combout\ $end
$var wire 1 @ \count~0_combout\ $end
$var wire 1 A \Add0~21\ $end
$var wire 1 B \Add0~22_combout\ $end
$var wire 1 C \Add0~23\ $end
$var wire 1 D \Add0~24_combout\ $end
$var wire 1 E \count~10_combout\ $end
$var wire 1 F \Add0~25\ $end
$var wire 1 G \Add0~26_combout\ $end
$var wire 1 H \count~4_combout\ $end
$var wire 1 I \Add0~27\ $end
$var wire 1 J \Add0~28_combout\ $end
$var wire 1 K \count~3_combout\ $end
$var wire 1 L \Add0~29\ $end
$var wire 1 M \Add0~30_combout\ $end
$var wire 1 N \Equal0~4_combout\ $end
$var wire 1 O \count~1_combout\ $end
$var wire 1 P \Add0~31\ $end
$var wire 1 Q \Add0~32_combout\ $end
$var wire 1 R \Add0~33\ $end
$var wire 1 S \Add0~34_combout\ $end
$var wire 1 T \count~2_combout\ $end
$var wire 1 U \Add0~35\ $end
$var wire 1 V \Add0~36_combout\ $end
$var wire 1 W \Add0~37\ $end
$var wire 1 X \Add0~38_combout\ $end
$var wire 1 Y \Equal0~5_combout\ $end
$var wire 1 Z \count~11_combout\ $end
$var wire 1 [ \Add0~39\ $end
$var wire 1 \ \Add0~40_combout\ $end
$var wire 1 ] \count~9_combout\ $end
$var wire 1 ^ \Add0~41\ $end
$var wire 1 _ \Add0~42_combout\ $end
$var wire 1 ` \count~8_combout\ $end
$var wire 1 a \Add0~43\ $end
$var wire 1 b \Add0~44_combout\ $end
$var wire 1 c \count~7_combout\ $end
$var wire 1 d \Add0~45\ $end
$var wire 1 e \Add0~46_combout\ $end
$var wire 1 f \count~6_combout\ $end
$var wire 1 g \Add0~47\ $end
$var wire 1 h \Add0~48_combout\ $end
$var wire 1 i \Add0~49\ $end
$var wire 1 j \Add0~50_combout\ $end
$var wire 1 k \Equal0~6_combout\ $end
$var wire 1 l \Equal0~7_combout\ $end
$var wire 1 m \count~5_combout\ $end
$var wire 1 n \Add0~15\ $end
$var wire 1 o \Add0~16_combout\ $end
$var wire 1 p \Add0~17\ $end
$var wire 1 q \Add0~18_combout\ $end
$var wire 1 r \Add0~19\ $end
$var wire 1 s \Add0~20_combout\ $end
$var wire 1 t \Equal0~1_combout\ $end
$var wire 1 u \Equal0~2_combout\ $end
$var wire 1 v \Equal0~3_combout\ $end
$var wire 1 w \process_0~0_combout\ $end
$var wire 1 x \process_0~1_combout\ $end
$var wire 1 y \process_0~2_combout\ $end
$var wire 1 z \process_0~3_combout\ $end
$var wire 1 { \process_0~4_combout\ $end
$var wire 1 | \process_0~5_combout\ $end
$var wire 1 } \tmp_out~0_combout\ $end
$var wire 1 ~ \tmp_out~1_combout\ $end
$var wire 1 !! \tmp_out~2_combout\ $end
$var wire 1 "! \tmp_out~q\ $end
$var wire 1 #! count [25] $end
$var wire 1 $! count [24] $end
$var wire 1 %! count [23] $end
$var wire 1 &! count [22] $end
$var wire 1 '! count [21] $end
$var wire 1 (! count [20] $end
$var wire 1 )! count [19] $end
$var wire 1 *! count [18] $end
$var wire 1 +! count [17] $end
$var wire 1 ,! count [16] $end
$var wire 1 -! count [15] $end
$var wire 1 .! count [14] $end
$var wire 1 /! count [13] $end
$var wire 1 0! count [12] $end
$var wire 1 1! count [11] $end
$var wire 1 2! count [10] $end
$var wire 1 3! count [9] $end
$var wire 1 4! count [8] $end
$var wire 1 5! count [7] $end
$var wire 1 6! count [6] $end
$var wire 1 7! count [5] $end
$var wire 1 8! count [4] $end
$var wire 1 9! count [3] $end
$var wire 1 :! count [2] $end
$var wire 1 ;! count [1] $end
$var wire 1 <! count [0] $end
$upscope $end
$upscope $end
$enddefinitions $end
#0
$dumpvars
0!
0"
0#
1$
x%
1&
1'
1(
1)
1*
1+
0,
0-
0.
0/
10
01
02
13
04
05
06
07
18
09
0:
0;
1<
0=
0>
0?
0@
0A
0B
1C
0D
0E
0F
0G
0H
1I
0J
0K
0L
0M
0N
0O
1P
0Q
0R
0S
0T
1U
0V
0W
0X
0Y
0Z
1[
0\
0]
0^
0_
0`
1a
0b
0c
0d
0e
0f
1g
0h
0i
0j
0k
0l
0m
1n
0o
0p
0q
1r
0s
1t
0u
0v
0w
0x
0y
0z
0{
1|
0}
0~
0!!
0"!
0#!
0$!
0%!
0&!
0'!
0(!
0)!
0*!
0+!
0,!
0-!
0.!
0/!
00!
01!
02!
03!
04!
05!
06!
07!
08!
09!
0:!
0;!
0<!
$end
#10000
1!
1,
1/
1<!
00
11
12
17
07
#20000
0!
0,
0/
#30000
1!
1,
1/
0<!
1;!
02
03
10
01
12
13
14
04
#40000
0!
0,
0/
#50000
1!
1,
1/
1<!
00
11
02
03
14
17
07
#60000
0!
0,
0/
#70000
1!
1,
1/
0<!
0;!
1:!
04
15
12
13
10
01
02
14
05
16
06
#80000
0!
0,
0/
#90000
1!
1,
1/
1<!
00
11
12
#100000
0!
0,
0/
#110000
1!
1,
1/
0<!
1;!
02
03
10
01
12
13
04
15
16
14
05
06
#120000
0!
0,
0/
#130000
1!
1,
1/
1<!
00
11
02
03
04
15
16
17
07
#140000
0!
0,
0/
#150000
1!
1,
1/
0<!
0;!
0:!
19!
06
08
14
05
12
13
10
01
02
04
16
18
19
0t
09
1t
#160000
0!
0,
0/
#170000
1!
1,
1/
1<!
00
11
12
#180000
0!
0,
0/
#190000
1!
1,
1/
0<!
1;!
02
03
10
01
12
13
14
04
#200000
0!
0,
0/
#210000
1!
1,
1/
1<!
00
11
02
03
14
#220000
0!
0,
0/
#230000
1!
1,
1/
0<!
0;!
1:!
04
15
12
13
10
01
02
14
05
06
08
19
16
18
09
0t
1t
#240000
0!
0,
0/
#250000
1!
1,
1/
1<!
00
11
12
#260000
0!
0,
0/
#270000
1!
1,
1/
0<!
1;!
02
03
10
01
12
13
04
15
06
08
14
05
16
18
19
0t
09
1t
#280000
0!
0,
0/
#290000
1!
1,
1/
1<!
00
11
02
03
04
15
06
08
19
17
0t
#300000
0!
0,
0/
#310000
1!
1,
1/
0<!
0;!
0:!
09!
18!
09
1:
16
18
14
05
12
13
10
01
02
04
06
19
0:
07
1;
1t
0;
0t
#320000
0!
0,
0/
#330000
1!
1,
1/
1<!
00
11
12
17
07
#340000
0!
0,
0/
#350000
1!
1,
1/
0<!
1;!
02
03
10
01
12
13
14
04
#360000
0!
0,
0/
#370000
1!
1,
1/
1<!
00
11
02
03
14
17
07
#380000
0!
0,
0/
#390000
1!
1,
1/
0<!
0;!
1:!
04
15
12
13
10
01
02
14
05
16
06
#400000
0!
0,
0/
#410000
1!
1,
1/
1<!
00
11
12
#420000
0!
0,
0/
#430000
1!
1,
1/
0<!
1;!
02
03
10
01
12
13
04
15
16
14
05
06
#440000
0!
0,
0/
#450000
1!
1,
1/
1<!
00
11
02
03
04
15
16
17
07
#460000
0!
0,
0/
#470000
1!
1,
1/
0<!
0;!
0:!
19!
06
08
14
05
12
13
10
01
02
04
16
18
09
1:
1;
1t
19
0:
0;
0t
#480000
0!
0,
0/
#490000
1!
1,
1/
1<!
00
11
12
#500000
0!
0,
0/
#510000
1!
1,
1/
0<!
1;!
02
03
10
01
12
13
14
04
#520000
0!
0,
0/
#530000
1!
1,
1/
1<!
00
11
02
03
14
#540000
0!
0,
0/
#550000
1!
1,
1/
0<!
0;!
1:!
04
15
12
13
10
01
02
14
05
06
08
09
1:
16
18
19
0:
1;
1t
0;
0t
#560000
0!
0,
0/
#570000
1!
1,
1/
1<!
00
11
12
#580000
0!
0,
0/
#590000
1!
1,
1/
0<!
1;!
02
03
10
01
12
13
04
15
06
08
14
05
16
18
09
1:
1;
1t
19
0:
0;
0t
#600000
0!
0,
0/
#610000
1!
1,
1/
1<!
00
11
02
03
04
15
06
08
09
1:
17
1;
1t
0t
#620000
0!
0,
0/
#630000
1!
1,
1/
0<!
0;!
0:!
09!
08!
17!
0;
0<
19
0:
16
18
14
05
12
13
10
01
02
04
06
09
07
1;
1<
1=
0=
#640000
0!
0,
0/
#650000
1!
1,
1/
1<!
00
11
12
17
07
#660000
0!
0,
0/
#670000
1!
1,
1/
0<!
1;!
02
03
10
01
12
13
14
04
#680000
0!
0,
0/
#690000
1!
1,
1/
1<!
00
11
02
03
14
17
07
#700000
0!
0,
0/
#710000
1!
1,
1/
0<!
0;!
1:!
04
15
12
13
10
01
02
14
05
16
06
#720000
0!
0,
0/
#730000
1!
1,
1/
1<!
00
11
12
#740000
0!
0,
0/
#750000
1!
1,
1/
0<!
1;!
02
03
10
01
12
13
04
15
16
14
05
06
#760000
0!
0,
0/
#770000
1!
1,
1/
1<!
00
11
02
03
04
15
16
17
07
#780000
0!
0,
0/
#790000
1!
1,
1/
0<!
0;!
0:!
19!
06
08
14
05
12
13
10
01
02
04
16
18
19
09
#800000
0!
0,
0/
#810000
1!
1,
1/
1<!
00
11
12
#820000
0!
0,
0/
#830000
1!
1,
1/
0<!
1;!
02
03
10
01
12
13
14
04
#840000
0!
0,
0/
#850000
1!
1,
1/
1<!
00
11
02
03
14
#860000
0!
0,
0/
#870000
1!
1,
1/
0<!
0;!
1:!
04
15
12
13
10
01
02
14
05
06
08
19
16
18
09
#880000
0!
0,
0/
#890000
1!
1,
1/
1<!
00
11
12
#900000
0!
0,
0/
#910000
1!
1,
1/
0<!
1;!
02
03
10
01
12
13
04
15
06
08
14
05
16
18
19
09
#920000
0!
0,
0/
#930000
1!
1,
1/
1<!
00
11
02
03
04
15
06
08
19
17
#940000
0!
0,
0/
#950000
1!
1,
1/
0<!
0;!
0:!
09!
18!
09
1:
16
18
14
05
12
13
10
01
02
04
06
19
0:
07
0;
0<
1=
1;
1<
0=
#960000
0!
0,
0/
#970000
1!
1,
1/
1<!
00
11
12
17
07
#980000
0!
0,
0/
#990000
1!
1,
1/
0<!
1;!
02
03
10
01
12
13
14
04
