ula-sim/simulation/qsim/ula.msim.vcd
$comment
	File created using the following command:
		vcd file ula.msim.vcd -direction
$end
$date
	Wed Oct 30 12:32:34 2019
$end
$version
	ModelSim Version 10.5b
$end
$timescale
	1ps
$end

$scope module ula_vhd_vec_tst $end
$var wire 1 ! Ai [7] $end
$var wire 1 " Ai [6] $end
$var wire 1 # Ai [5] $end
$var wire 1 $ Ai [4] $end
$var wire 1 % Ai [3] $end
$var wire 1 & Ai [2] $end
$var wire 1 ' Ai [1] $end
$var wire 1 ( Ai [0] $end
$var wire 1 ) Bi [7] $end
$var wire 1 * Bi [6] $end
$var wire 1 + Bi [5] $end
$var wire 1 , Bi [4] $end
$var wire 1 - Bi [3] $end
$var wire 1 . Bi [2] $end
$var wire 1 / Bi [1] $end
$var wire 1 0 Bi [0] $end
$var wire 1 1 Fi [7] $end
$var wire 1 2 Fi [6] $end
$var wire 1 3 Fi [5] $end
$var wire 1 4 Fi [4] $end
$var wire 1 5 Fi [3] $end
$var wire 1 6 Fi [2] $end
$var wire 1 7 Fi [1] $end
$var wire 1 8 Fi [0] $end
$var wire 1 9 M $end
$var wire 1 : S0 $end
$var wire 1 ; S1 $end

$scope module i1 $end
$var wire 1 < gnd $end
$var wire 1 = vcc $end
$var wire 1 > unknown $end
$var wire 1 ? devoe $end
$var wire 1 @ devclrn $end
$var wire 1 A devpor $end
$var wire 1 B ww_devoe $end
$var wire 1 C ww_devclrn $end
$var wire 1 D ww_devpor $end
$var wire 1 E ww_Ai [7] $end
$var wire 1 F ww_Ai [6] $end
$var wire 1 G ww_Ai [5] $end
$var wire 1 H ww_Ai [4] $end
$var wire 1 I ww_Ai [3] $end
$var wire 1 J ww_Ai [2] $end
$var wire 1 K ww_Ai [1] $end
$var wire 1 L ww_Ai [0] $end
$var wire 1 M ww_Bi [7] $end
$var wire 1 N ww_Bi [6] $end
$var wire 1 O ww_Bi [5] $end
$var wire 1 P ww_Bi [4] $end
$var wire 1 Q ww_Bi [3] $end
$var wire 1 R ww_Bi [2] $end
$var wire 1 S ww_Bi [1] $end
$var wire 1 T ww_Bi [0] $end
$var wire 1 U ww_S1 $end
$var wire 1 V ww_S0 $end
$var wire 1 W ww_M $end
$var wire 1 X ww_Fi [7] $end
$var wire 1 Y ww_Fi [6] $end
$var wire 1 Z ww_Fi [5] $end
$var wire 1 [ ww_Fi [4] $end
$var wire 1 \ ww_Fi [3] $end
$var wire 1 ] ww_Fi [2] $end
$var wire 1 ^ ww_Fi [1] $end
$var wire 1 _ ww_Fi [0] $end
$var wire 1 ` \Fi[0]~output_o\ $end
$var wire 1 a \Fi[1]~output_o\ $end
$var wire 1 b \Fi[2]~output_o\ $end
$var wire 1 c \Fi[3]~output_o\ $end
$var wire 1 d \Fi[4]~output_o\ $end
$var wire 1 e \Fi[5]~output_o\ $end
$var wire 1 f \Fi[6]~output_o\ $end
$var wire 1 g \Fi[7]~output_o\ $end
$var wire 1 h \S1~input_o\ $end
$var wire 1 i \Bi[0]~input_o\ $end
$var wire 1 j \S0~input_o\ $end
$var wire 1 k \Add0~0_combout\ $end
$var wire 1 l \Ai[0]~input_o\ $end
$var wire 1 m \Add0~2_cout\ $end
$var wire 1 n \Add0~3_combout\ $end
$var wire 1 o \Fi~0_combout\ $end
$var wire 1 p \M~input_o\ $end
$var wire 1 q \Add0~5_combout\ $end
$var wire 1 r \Bi[1]~input_o\ $end
$var wire 1 s \Add0~6_combout\ $end
$var wire 1 t \Ai[1]~input_o\ $end
$var wire 1 u \Add0~4\ $end
$var wire 1 v \Add0~7_combout\ $end
$var wire 1 w \Fi~1_combout\ $end
$var wire 1 x \Add0~9_combout\ $end
$var wire 1 y \Bi[2]~input_o\ $end
$var wire 1 z \Add0~10_combout\ $end
$var wire 1 { \Ai[2]~input_o\ $end
$var wire 1 | \Add0~8\ $end
$var wire 1 } \Add0~11_combout\ $end
$var wire 1 ~ \Fi~2_combout\ $end
$var wire 1 !! \Add0~13_combout\ $end
$var wire 1 "! \Bi[3]~input_o\ $end
$var wire 1 #! \Add0~14_combout\ $end
$var wire 1 $! \Ai[3]~input_o\ $end
$var wire 1 %! \Add0~12\ $end
$var wire 1 &! \Add0~15_combout\ $end
$var wire 1 '! \Fi~3_combout\ $end
$var wire 1 (! \Add0~17_combout\ $end
$var wire 1 )! \Bi[4]~input_o\ $end
$var wire 1 *! \Add0~18_combout\ $end
$var wire 1 +! \Ai[4]~input_o\ $end
$var wire 1 ,! \Add0~16\ $end
$var wire 1 -! \Add0~19_combout\ $end
$var wire 1 .! \Fi~4_combout\ $end
$var wire 1 /! \Add0~21_combout\ $end
$var wire 1 0! \Bi[5]~input_o\ $end
$var wire 1 1! \Add0~22_combout\ $end
$var wire 1 2! \Ai[5]~input_o\ $end
$var wire 1 3! \Add0~20\ $end
$var wire 1 4! \Add0~23_combout\ $end
$var wire 1 5! \Fi~5_combout\ $end
$var wire 1 6! \Add0~25_combout\ $end
$var wire 1 7! \Bi[6]~input_o\ $end
$var wire 1 8! \Add0~26_combout\ $end
$var wire 1 9! \Ai[6]~input_o\ $end
$var wire 1 :! \Add0~24\ $end
$var wire 1 ;! \Add0~27_combout\ $end
$var wire 1 <! \Fi~6_combout\ $end
$var wire 1 =! \Add0~29_combout\ $end
$var wire 1 >! \Bi[7]~input_o\ $end
$var wire 1 ?! \Add0~30_combout\ $end
$var wire 1 @! \Ai[7]~input_o\ $end
$var wire 1 A! \Add0~28\ $end
$var wire 1 B! \Add0~31_combout\ $end
$var wire 1 C! \Fi~7_combout\ $end
$var wire 1 D! \Add0~33_combout\ $end
$upscope $end
$upscope $end
$enddefinitions $end
#0
$dumpvars
19
1:
0;
0<
1=
x>
1?
1@
1A
1B
1C
1D
0U
1V
1W
1`
0a
0b
0c
1d
0e
0f
1g
0h
0i
1j
1k
1l
1m
1n
1o
1p
1q
0r
1s
0t
0u
0v
0w
0x
0y
1z
0{
1|
0}
0~
0!!
0"!
1#!
0$!
0%!
0&!
0'!
0(!
0)!
1*!
1+!
1,!
1-!
1.!
1/!
00!
11!
02!
03!
04!
05!
06!
07!
18!
09!
1:!
0;!
0<!
0=!
0>!
1?!
1@!
0A!
1B!
1C!
1D!
1!
0"
0#
1$
0%
0&
0'
1(
0)
0*
0+
0,
0-
0.
0/
00
11
02
03
14
05
06
07
18
1E
0F
0G
1H
0I
0J
0K
1L
0M
0N
0O
0P
0Q
0R
0S
0T
1X
0Y
0Z
1[
0\
0]
0^
1_
$end
#100000
1#
1%
1&
1'
10
1K
1J
1I
1G
1T
1i
12!
1$!
1{
1t
1v
1w
1}
1~
1&!
1'!
14!
15!
0k
0n
16!
1(!
1!!
1x
1a
1b
1c
1e
0q
1^
1]
1\
1Z
0`
17
16
15
13
0_
08
#200000
0&
00
0!
1/
0J
0E
0T
1S
1r
0i
0@!
0{
0}
0~
0B!
0C!
1k
0s
0v
1n
0D!
0!!
0b
0g
1q
0x
0]
0X
0a
1`
06
01
0^
1_
18
07
#300000
10
0%
0'
1"
0$
1T
0K
0I
0H
1F
19!
0+!
0$!
0t
1i
0k
1v
0|
0&!
0'!
0-!
0.!
1;!
1<!
1=!
0/!
0(!
1}
1%!
1x
0n
1a
0c
0d
1f
0q
1&!
0,!
1!!
1^
0\
0[
1Y
1b
0`
1-!
13!
1(!
17
05
04
12
1]
0_
1c
04!
1/!
08
16
1\
1d
06!
15
1[
0e
14
0Z
03
#400000
00
1'
0"
1&
1!
0/
0#
1.
0T
0S
1R
1K
1J
0G
0F
1E
1@!
09!
02!
1{
1t
1y
0r
0i
1k
1s
0z
0v
1|
0}
0%!
1~
14!
0:!
05!
0;!
0<!
1B!
1C!
1D!
0=!
1;!
1A!
16!
0&!
1,!
0!!
0x
1v
1n
0a
0b
1e
0f
1g
1q
1x
0-!
03!
0(!
0B!
1=!
0^
0]
1Z
0Y
1X
1f
0c
1a
1`
0D!
04!
1:!
0/!
07
06
13
02
11
1Y
0\
1^
1_
0d
0g
0;!
0A!
06!
18
17
05
12
0[
0X
0e
1B!
0=!
04
01
0Z
0f
1D!
03
0Y
1g
02
1X
11
#500000
10
0'
1"
0!
1%
1$
0(
1T
0L
0K
1I
1H
1F
0E
0@!
19!
1+!
1$!
0t
0l
1i
0k
0n
0v
0w
1&!
1'!
1-!
1.!
1;!
1<!
0B!
0C!
0D!
1=!
1/!
1(!
0x
0q
1n
1u
0`
0a
1c
1d
1f
0g
1v
0|
1q
0_
0^
1\
1[
1Y
0X
1`
1}
1%!
1x
08
07
15
14
12
01
1_
1a
0&!
1!!
18
1^
1b
0(!
17
1]
0c
16
0\
05
#600000
00
1'
0"
1!
0%
1(
0&
1/
1#
0T
1S
1L
1K
0J
0I
1G
0F
1E
1@!
09!
12!
0$!
0{
1t
1l
1r
0i
1k
0s
0n
0u
0v
1|
1w
0}
1&!
0,!
0'!
14!
15!
0;!
0<!
1B!
1C!
1D!
0=!
16!
0-!
1(!
0!!
1}
0x
0q
1n
0`
0a
0b
1c
1e
0f
1g
1q
1!!
0/!
0_
0^
0]
1\
1Z
0Y
1X
0d
1b
1`
08
07
06
15
13
02
11
0[
1]
1_
18
16
04
#700000
10
0!
1%
1&
1T
1J
1I
0E
0@!
1$!
1{
1i
0k
0}
0%!
0&!
1,!
1'!
0B!
0C!
0D!
1-!
0(!
1&!
0!!
0n
0b
0c
0g
0q
1(!
1/!
0]
0\
0X
1d
1c
0`
06
05
01
1[
1\
0_
08
15
14
#800000
00
0&
0(
0/
0$
0.
1-
0T
0S
0R
1Q
0L
0J
0H
0+!
0{
0l
1"!
0y
0r
0i
1k
1s
1z
0#!
1n
1u
0o
1}
1%!
0~
0-!
0.!
0/!
1!!
1q
0,!
0}
0%!
0n
0u
1`
1b
0d
1v
0q
0&!
1,!
0!!
1-!
13!
1_
1]
0[
0b
0`
04!
1/!
0-!
03!
0(!
1x
18
16
04
0]
0_
1a
0c
1d
14!
0/!
06!
08
06
1^
0\
1[
0e
0d
16!
17
05
14
0Z
0[
1e
04
03
1Z
13
#900000
10
1&
1$
1!
0'
1"
0#
1T
0K
1J
1H
0G
1F
1E
1@!
19!
02!
1+!
1{
0t
1i
0k
1o
0v
0w
1}
1~
1-!
1.!
04!
05!
1;!
1<!
1B!
1C!
1D!
1=!
06!
1/!
1!!
0x
1n
1u
0a
1b
1d
0e
1f
1g
1v
0|
1q
0^
1]
1[
0Z
1Y
1X
1`
0}
1x
07
16
14
03
12
11
1_
1a
0!!
18
1^
0b
17
0]
06
