generic_adder/simulation/qsim/carry_ripple_adder.msim.vcd
$comment
	File created using the following command:
		vcd file carry_ripple_adder.msim.vcd -direction
$end
$date
	Tue Nov 12 21:01:11 2019
$end
$version
	ModelSim Version 10.5b
$end
$timescale
	1ps
$end

$scope module carry_ripple_adder_vhd_vec_tst $end
$var wire 1 ! A [11] $end
$var wire 1 " A [10] $end
$var wire 1 # A [9] $end
$var wire 1 $ A [8] $end
$var wire 1 % A [7] $end
$var wire 1 & A [6] $end
$var wire 1 ' A [5] $end
$var wire 1 ( A [4] $end
$var wire 1 ) A [3] $end
$var wire 1 * A [2] $end
$var wire 1 + A [1] $end
$var wire 1 , A [0] $end
$var wire 1 - B [11] $end
$var wire 1 . B [10] $end
$var wire 1 / B [9] $end
$var wire 1 0 B [8] $end
$var wire 1 1 B [7] $end
$var wire 1 2 B [6] $end
$var wire 1 3 B [5] $end
$var wire 1 4 B [4] $end
$var wire 1 5 B [3] $end
$var wire 1 6 B [2] $end
$var wire 1 7 B [1] $end
$var wire 1 8 B [0] $end
$var wire 1 9 CARRY_IN $end
$var wire 1 : CARRY_OUT $end
$var wire 1 ; S [11] $end
$var wire 1 < S [10] $end
$var wire 1 = S [9] $end
$var wire 1 > S [8] $end
$var wire 1 ? S [7] $end
$var wire 1 @ S [6] $end
$var wire 1 A S [5] $end
$var wire 1 B S [4] $end
$var wire 1 C S [3] $end
$var wire 1 D S [2] $end
$var wire 1 E S [1] $end
$var wire 1 F S [0] $end

$scope module i1 $end
$var wire 1 G gnd $end
$var wire 1 H vcc $end
$var wire 1 I unknown $end
$var wire 1 J devoe $end
$var wire 1 K devclrn $end
$var wire 1 L devpor $end
$var wire 1 M ww_devoe $end
$var wire 1 N ww_devclrn $end
$var wire 1 O ww_devpor $end
$var wire 1 P ww_A [11] $end
$var wire 1 Q ww_A [10] $end
$var wire 1 R ww_A [9] $end
$var wire 1 S ww_A [8] $end
$var wire 1 T ww_A [7] $end
$var wire 1 U ww_A [6] $end
$var wire 1 V ww_A [5] $end
$var wire 1 W ww_A [4] $end
$var wire 1 X ww_A [3] $end
$var wire 1 Y ww_A [2] $end
$var wire 1 Z ww_A [1] $end
$var wire 1 [ ww_A [0] $end
$var wire 1 \ ww_B [11] $end
$var wire 1 ] ww_B [10] $end
$var wire 1 ^ ww_B [9] $end
$var wire 1 _ ww_B [8] $end
$var wire 1 ` ww_B [7] $end
$var wire 1 a ww_B [6] $end
$var wire 1 b ww_B [5] $end
$var wire 1 c ww_B [4] $end
$var wire 1 d ww_B [3] $end
$var wire 1 e ww_B [2] $end
$var wire 1 f ww_B [1] $end
$var wire 1 g ww_B [0] $end
$var wire 1 h ww_CARRY_IN $end
$var wire 1 i ww_S [11] $end
$var wire 1 j ww_S [10] $end
$var wire 1 k ww_S [9] $end
$var wire 1 l ww_S [8] $end
$var wire 1 m ww_S [7] $end
$var wire 1 n ww_S [6] $end
$var wire 1 o ww_S [5] $end
$var wire 1 p ww_S [4] $end
$var wire 1 q ww_S [3] $end
$var wire 1 r ww_S [2] $end
$var wire 1 s ww_S [1] $end
$var wire 1 t ww_S [0] $end
$var wire 1 u ww_CARRY_OUT $end
$var wire 1 v \S[0]~output_o\ $end
$var wire 1 w \S[1]~output_o\ $end
$var wire 1 x \S[2]~output_o\ $end
$var wire 1 y \S[3]~output_o\ $end
$var wire 1 z \S[4]~output_o\ $end
$var wire 1 { \S[5]~output_o\ $end
$var wire 1 | \S[6]~output_o\ $end
$var wire 1 } \S[7]~output_o\ $end
$var wire 1 ~ \S[8]~output_o\ $end
$var wire 1 !! \S[9]~output_o\ $end
$var wire 1 "! \S[10]~output_o\ $end
$var wire 1 #! \S[11]~output_o\ $end
$var wire 1 $! \CARRY_OUT~output_o\ $end
$var wire 1 %! \A[0]~input_o\ $end
$var wire 1 &! \B[0]~input_o\ $end
$var wire 1 '! \CARRY_IN~input_o\ $end
$var wire 1 (! \gen:0:FA|ha2|SUM~0_combout\ $end
$var wire 1 )! \B[1]~input_o\ $end
$var wire 1 *! \A[1]~input_o\ $end
$var wire 1 +! \gen:0:FA|CARRY~0_combout\ $end
$var wire 1 ,! \gen:1:FA|ha2|SUM~combout\ $end
$var wire 1 -! \gen:1:FA|CARRY~0_combout\ $end
$var wire 1 .! \A[2]~input_o\ $end
$var wire 1 /! \B[2]~input_o\ $end
$var wire 1 0! \gen:2:FA|ha2|SUM~combout\ $end
$var wire 1 1! \gen:2:FA|CARRY~0_combout\ $end
$var wire 1 2! \A[3]~input_o\ $end
$var wire 1 3! \B[3]~input_o\ $end
$var wire 1 4! \gen:3:FA|ha2|SUM~combout\ $end
$var wire 1 5! \gen:3:FA|CARRY~0_combout\ $end
$var wire 1 6! \A[4]~input_o\ $end
$var wire 1 7! \B[4]~input_o\ $end
$var wire 1 8! \gen:4:FA|ha2|SUM~combout\ $end
$var wire 1 9! \gen:4:FA|CARRY~0_combout\ $end
$var wire 1 :! \A[5]~input_o\ $end
$var wire 1 ;! \B[5]~input_o\ $end
$var wire 1 <! \gen:5:FA|ha2|SUM~combout\ $end
$var wire 1 =! \gen:5:FA|CARRY~0_combout\ $end
$var wire 1 >! \A[6]~input_o\ $end
$var wire 1 ?! \B[6]~input_o\ $end
$var wire 1 @! \gen:6:FA|ha2|SUM~combout\ $end
$var wire 1 A! \gen:6:FA|CARRY~0_combout\ $end
$var wire 1 B! \A[7]~input_o\ $end
$var wire 1 C! \B[7]~input_o\ $end
$var wire 1 D! \gen:7:FA|ha2|SUM~combout\ $end
$var wire 1 E! \gen:7:FA|CARRY~0_combout\ $end
$var wire 1 F! \A[8]~input_o\ $end
$var wire 1 G! \B[8]~input_o\ $end
$var wire 1 H! \gen:8:FA|ha2|SUM~combout\ $end
$var wire 1 I! \gen:8:FA|CARRY~0_combout\ $end
$var wire 1 J! \A[9]~input_o\ $end
$var wire 1 K! \B[9]~input_o\ $end
$var wire 1 L! \gen:9:FA|ha2|SUM~combout\ $end
$var wire 1 M! \gen:9:FA|CARRY~0_combout\ $end
$var wire 1 N! \A[10]~input_o\ $end
$var wire 1 O! \B[10]~input_o\ $end
$var wire 1 P! \gen:10:FA|ha2|SUM~combout\ $end
$var wire 1 Q! \gen:10:FA|CARRY~0_combout\ $end
$var wire 1 R! \A[11]~input_o\ $end
$var wire 1 S! \B[11]~input_o\ $end
$var wire 1 T! \gen:11:FA|ha2|SUM~combout\ $end
$var wire 1 U! \gen:11:FA|CARRY~0_combout\ $end
$upscope $end
$upscope $end
$enddefinitions $end
#0
$dumpvars
09
1:
0G
1H
xI
1J
1K
1L
1M
1N
1O
0h
1u
0v
1w
1x
1y
0z
0{
1|
0}
1~
0!!
1"!
1#!
1$!
0%!
0&!
0'!
0(!
0)!
1*!
0+!
1,!
0-!
1.!
0/!
10!
01!
02!
13!
14!
05!
06!
07!
08!
09!
0:!
0;!
0<!
0=!
0>!
1?!
1@!
0A!
1B!
1C!
0D!
1E!
0F!
0G!
1H!
0I!
1J!
1K!
0L!
1M!
1N!
1O!
1P!
1Q!
1R!
1S!
1T!
1U!
1!
1"
1#
0$
1%
0&
0'
0(
0)
1*
1+
0,
1-
1.
1/
00
11
12
03
04
15
06
07
08
1P
1Q
1R
0S
1T
0U
0V
0W
0X
1Y
1Z
0[
1\
1]
1^
0_
1`
1a
0b
0c
1d
0e
0f
0g
1i
1j
0k
1l
0m
1n
0o
0p
1q
1r
1s
0t
1;
1<
0=
1>
0?
1@
0A
0B
1C
1D
1E
0F
$end
#50000
0"
1&
1(
0*
1,
0-
17
1[
0Y
1W
1U
0Q
1f
0\
0S!
1)!
0N!
1>!
16!
0.!
1%!
1(!
00!
18!
0@!
1A!
0P!
0,!
1-!
0T!
0#!
0w
0"!
0|
1z
0x
1v
10!
1D!
0i
0s
0j
0n
1p
0r
1t
1}
1x
1F
0E
0D
1B
0@
0<
0;
1m
1r
1D
1?
#100000
1"
0&
0(
0,
1-
07
0#
1$
1)
0+
02
14
05
0[
0Z
1X
0W
0U
1S
0R
1Q
0f
0d
1c
0a
1\
1S!
0?!
17!
03!
0)!
1N!
0J!
1F!
0>!
06!
12!
0*!
0%!
0(!
0H!
1I!
1L!
0M!
1P!
0-!
0A!
1T!
1#!
1"!
1!!
0~
0v
0D!
00!
0P!
0L!
1M!
1i
1j
1k
0l
0t
0!!
0"!
0x
0}
1P!
0F
0>
1=
1<
1;
0k
0j
0r
0m
1"!
0D
0?
0=
0<
1j
1<
#150000
1&
1(
1,
1#
0$
0)
1+
12
04
1*
0!
1'
0.
10
13
16
1[
1Z
1Y
0X
1W
1V
1U
0S
1R
0P
1e
0c
1b
1a
1_
0]
0O!
1G!
1?!
1;!
07!
1/!
0R!
1J!
0F!
1>!
1:!
16!
02!
1.!
1*!
1%!
1(!
1,!
04!
1L!
0T!
11!
1=!
1A!
0P!
0"!
0#!
1!!
0y
1w
1v
1D!
1@!
14!
0j
0i
1k
0q
1s
1t
1y
1|
1}
1F
1E
0C
1=
0<
0;
1q
1n
1m
1C
1@
1?
#200000
0&
0(
0#
1$
1)
02
0*
1.
06
17
15
0/
01
18
0Y
1X
0W
0U
1S
0R
1g
1f
0e
1d
0a
0`
0^
1]
1O!
0K!
0C!
0?!
13!
0/!
1)!
1&!
0J!
1F!
0>!
06!
12!
0.!
08!
1H!
0(!
1+!
0,!
1-!
01!
15!
0A!
0D!
0M!
1P!
1"!
0}
0w
0v
1~
0z
0P!
1D!
0E!
18!
04!
10!
1,!
1j
0m
0s
0t
1l
0p
1w
1x
0y
1z
1}
0"!
0H!
0F
0E
0B
0?
1>
1<
1s
1r
0q
1p
1m
0j
0~
1E
1D
0C
1B
1?
0<
0l
0>
#250000
1(
0$
0)
1*
05
1/
11
08
0,
0+
14
1!
00
03
0[
0Z
1Y
0X
1W
0S
1P
0g
0d
1c
0b
1`
0_
1^
1K!
0G!
1C!
0;!
17!
03!
0&!
1R!
0F!
16!
02!
1.!
0*!
0%!
0,!
00!
11!
1T!
0+!
05!
19!
1<!
0=!
0D!
1E!
0I!
0L!
1M!
0!!
0}
1{
1#!
0x
0w
1P!
1L!
0M!
1H!
0@!
0<!
1=!
08!
1,!
0-!
14!
0k
0m
1o
1i
0r
0s
1y
1w
0z
0{
0|
1~
1!!
1"!
10!
01!
1@!
0P!
0E
0D
1A
0?
0=
1;
1q
1s
0p
0o
0n
1l
1k
1j
0"!
1|
1x
04!
1E
1C
0B
0A
0@
1>
1=
1<
0j
1n
1r
0y
1D
1@
0<
0q
0C
#300000
0(
1$
0*
15
0/
18
04
10
13
12
0.
16
0'
0"
0Y
0W
0V
1S
0Q
1g
1e
1d
0c
1b
1a
1_
0^
0]
0O!
0K!
1G!
1?!
1;!
07!
13!
1/!
1&!
0N!
1F!
0:!
06!
0.!
1(!
14!
09!
0@!
1A!
1I!
0L!
0Q!
0!!
0|
1y
1v
0T!
1L!
1D!
1<!
0=!
0k
0n
1q
1t
1{
1}
1!!
0#!
1@!
0A!
1F
1C
0@
0=
1o
1m
1k
0i
1|
0D!
1A
1?
1=
0;
1n
0}
1@
0m
0?
#350000
0$
1*
05
00
02
1.
06
01
1+
0!
1#
0-
0%
1Z
1Y
0T
0S
1R
0P
0e
0d
0a
0`
0_
1]
0\
0S!
1O!
0G!
0C!
0?!
03!
0/!
0R!
1J!
0F!
0B!
1.!
1*!
0,!
1-!
0L!
1M!
04!
0@!
0E!
0I!
1P!
0U!
0$!
1"!
0|
0y
0!!
0w
1L!
0M!
0H!
0P!
1Q!
00!
11!
0u
1j
0n
0q
0k
0s
0x
0"!
0~
1!!
14!
1T!
1P!
0Q!
0:
0E
0C
0@
0=
1<
0r
0j
0l
1k
1"!
1#!
1y
0T!
0D
0>
1=
0<
1j
1i
1q
0#!
1C
1<
1;
0i
0;
#400000
1$
0*
15
10
12
0+
1!
0#
1-
1%
1'
1"
1,
1&
1[
0Z
0Y
1V
1U
1T
1S
0R
1Q
1P
1d
1a
1_
1\
1S!
1G!
1?!
13!
1R!
1N!
0J!
1F!
1B!
1>!
1:!
0.!
0*!
1%!
0(!
1+!
1,!
0-!
10!
01!
0<!
1=!
1D!
0L!
0P!
1Q!
04!
15!
1A!
1I!
1U!
1$!
0y
0"!
0!!
1}
0{
1x
1w
0v
1L!
0D!
1E!
18!
1T!
1@!
14!
05!
00!
0,!
1-!
1u
0q
0j
0k
1m
0o
1r
1s
0t
0w
0x
1y
1|
1#!
1z
0}
1!!
10!
08!
1H!
1:
0F
1E
1D
0C
0A
1?
0=
0<
0s
0r
1q
1n
1i
1p
0m
1k
1~
0z
1x
0E
0D
1C
1B
1@
0?
1=
1;
1l
0p
1r
1D
0B
1>
#450000
1*
05
00
1+
0-
0%
0'
0"
0,
0.
1/
08
14
1)
0[
1Z
1Y
1X
0V
0T
0Q
0g
0d
1c
0_
1^
0]
0\
0S!
0O!
1K!
0G!
17!
03!
0&!
0N!
0B!
0:!
12!
1.!
1*!
0%!
1,!
00!
11!
1<!
0=!
1D!
0E!
0+!
18!
0H!
0L!
1M!
0Q!
0T!
0#!
0!!
0~
1z
1}
1{
0x
1w
1T!
0U!
1P!
0,!
1H!
0I!
0@!
04!
15!
0i
0k
0l
1p
1m
1o
0r
1s
0y
0|
1~
0w
1"!
0$!
1#!
08!
19!
1L!
0M!
1E
0D
1B
1A
1?
0>
0=
0;
0q
0n
1l
0s
1j
0u
1i
1!!
0z
0P!
0<!
1=!
0E
0C
0@
1>
1<
1;
0:
1k
0p
0{
0"!
1@!
0B
1=
0o
0j
1|
0A
0<
1n
1@
#500000
15
0+
1-
1'
1,
0/
04
0)
0&
16
11
1e
1d
0c
1`
0^
1\
1[
0Z
0X
1V
0U
0>!
1:!
02!
0*!
1%!
1S!
0K!
1C!
07!
13!
1/!
10!
18!
09!
0D!
1E!
0L!
0T!
1U!
1(!
1,!
0-!
1<!
0@!
0|
1{
1w
1v
1$!
0#!
0!!
0}
1z
1x
00!
0H!
1I!
0<!
0n
1o
1s
1t
1u
0i
0k
0m
1p
1r
0{
0~
0x
1L!
1F
1E
1D
1B
1A
0@
0?
0=
0;
1:
0o
0l
0r
1!!
0D
0A
0>
1k
1=
#550000
05
0'
14
1)
1&
06
01
0*
10
1%
0$
03
07
0f
0e
0d
1c
0b
0`
1_
0Y
1X
0V
1U
1T
0S
0F!
1B!
1>!
0:!
12!
0.!
1G!
0C!
0;!
17!
03!
0/!
0)!
0,!
08!
19!
01!
0=!
1@!
1|
0z
0w
0@!
14!
05!
1<!
1n
0p
0s
1{
1y
0|
18!
09!
0E
0B
1@
1o
1q
0n
1z
0<!
1C
1A
0@
1p
0{
1B
0o
0A
#600000
15
04
0)
16
11
00
0%
13
0,
1/
1"
1.
1(
1e
1d
0c
1b
1`
0_
1^
1]
0[
0X
1W
0T
1Q
1N!
0B!
16!
02!
0%!
1O!
1K!
0G!
1C!
1;!
07!
13!
1/!
10!
1<!
1H!
0I!
0L!
1M!
0(!
1Q!
0v
0!!
1~
1{
1x
1T!
1P!
1L!
0M!
0t
0k
1l
1o
1r
1!!
1"!
1#!
0P!
0F
1D
1A
1>
0=
1k
1j
1i
0"!
1=
1<
1;
0j
0<
#650000
1)
01
1%
03
0"
1*
17
02
1#
1Y
1X
1T
1R
0Q
1f
0b
0a
0`
0C!
0?!
0;!
1)!
0N!
1J!
1B!
12!
1.!
00!
11!
04!
15!
0L!
1M!
1P!
0Q!
1,!
0<!
1@!
0A!
1|
0{
1w
1"!
0!!
0y
0x
1D!
0E!
0T!
0P!
1Q!
08!
19!
14!
1n
0o
1s
1j
0k
0q
0r
1y
0z
0"!
0#!
1}
1<!
1T!
0H!
1E
0D
0C
0A
1@
0=
1<
1q
0p
0j
0i
1m
0~
1#!
1{
1C
0B
1?
0<
0;
0l
1i
1o
1A
0>
1;
#700000
11
1"
0*
05
06
10
1,
0/
0.
1'
0&
0!
0e
0d
1`
1_
0^
0]
1[
0Y
1V
0U
1Q
0P
0R!
1N!
0>!
1:!
0.!
1%!
0O!
0K!
1G!
1C!
03!
0/!
04!
0D!
1E!
1H!
1L!
0M!
1(!
01!
0<!
1=!
0@!
0T!
0#!
0|
0{
1v
1!!
1~
0}
0y
1@!
14!
05!
1P!
0Q!
0H!
1I!
0i
0n
0o
1t
1k
1l
0m
0q
0~
1"!
1y
1|
0L!
1M!
1T!
0U!
18!
09!
1F
0C
0A
0@
0?
1>
1=
0;
0l
1j
1q
1n
1z
0$!
1#!
0!!
1<!
0=!
0P!
1Q!
1C
1@
0>
1<
1p
0u
1i
0k
0"!
1{
0T!
1U!
0@!
1B
0=
1;
0:
0j
1o
0|
1$!
0#!
1A
0<
0n
1u
0i
0@
0;
1:
#750000
01
0"
15
16
00
1/
0'
1&
1!
0)
0%
13
14
0(
0-
18
1g
1e
1d
1c
1b
0`
0_
1^
0\
0X
0W
0V
1U
0T
0Q
1P
1R!
0N!
0B!
1>!
0:!
06!
02!
0S!
1K!
0G!
0C!
1;!
17!
13!
1/!
1&!
0(!
1+!
10!
1H!
0I!
1L!
1@!
0E!
1P!
0Q!
1"!
1|
1!!
1~
1x
0v
1T!
0U!
0H!
0L!
0,!
1-!
1j
1n
1k
1l
1r
0t
0w
0!!
0~
0$!
1#!
00!
11!
0F
1D
1@
1>
1=
1<
0s
0k
0l
0u
1i
0x
04!
15!
0E
0>
0=
1;
0:
0r
0y
08!
19!
0D
0q
0z
0<!
1=!
0C
0p
0{
0@!
1A!
0B
0o
0|
1D!
0A
0n
1}
0@
1m
1?
#800000
1"
06
0!
1)
1%
03
1(
1-
12
1$
1X
1W
1T
1S
1Q
0P
0e
0b
1a
1\
1S!
1?!
0;!
0/!
0R!
1N!
1F!
1B!
16!
12!
14!
18!
0D!
1E!
1H!
0P!
1Q!
10!
01!
1<!
0=!
1@!
1|
1{
1x
0"!
1~
0}
1z
1y
0@!
04!
0T!
1U!
0H!
1I!
1n
1o
1r
0j
1l
0m
1p
1q
0~
1$!
0#!
0y
0|
1L!
1D
1C
1B
1A
1@
0?
1>
0<
0l
1u
0i
0q
0n
1!!
0C
0@
0>
0;
1:
1k
1=
#850000
0"
16
1!
0%
0(
0-
02
0$
11
05
10
0/
1'
0&
04
08
0,
0#
0[
0W
1V
0U
0T
0S
0R
0Q
1P
0g
1e
0d
0c
0a
1`
1_
0^
0\
0S!
0K!
1G!
1C!
0?!
07!
03!
1/!
0&!
1R!
0N!
0J!
0F!
0B!
0>!
1:!
06!
0%!
0<!
1=!
1P!
0Q!
0+!
00!
11!
14!
05!
09!
0A!
0M!
1y
0x
1"!
0{
0P!
1D!
0E!
1<!
0=!
08!
04!
15!
1,!
0-!
1T!
0U!
1@!
1q
0r
1j
0o
1|
0$!
1#!
1w
0y
0z
1{
1}
0"!
10!
01!
18!
0@!
1H!
0I!
0D
1C
0A
1<
1n
0u
1i
1s
0q
0p
1o
1m
0j
1~
0|
1z
1x
0L!
14!
05!
1E
0C
0B
1A
1@
1?
0<
1;
0:
1l
0n
1p
1r
1y
0!!
08!
1D
1B
0@
1>
1q
0k
0z
1C
0=
0p
0B
#900000
1"
0!
1(
1-
12
1$
01
15
00
1/
0'
0)
13
1*
07
1Y
0X
1W
0V
1S
1Q
0P
0f
1d
1b
1a
0`
0_
1^
1\
1S!
1K!
0G!
0C!
1?!
1;!
13!
0)!
0R!
1N!
1F!
0:!
16!
02!
1.!
00!
11!
18!
1P!
0,!
1@!
0D!
1L!
1!!
0}
1|
0w
1"!
1z
0x
04!
15!
1k
0m
1n
0s
1j
1p
0r
0y
08!
19!
0E
0D
1B
1@
0?
1=
1<
0q
0z
0<!
1=!
0C
0p
0{
0@!
1A!
0B
0o
0|
1D!
0A
0n
1}
0@
1m
1?
#950000
0"
1!
02
05
10
0/
03
18
1+
1Z
0Q
1P
1g
0d
0b
0a
1_
0^
0K!
1G!
0?!
0;!
03!
1&!
1R!
0N!
1*!
1,!
0P!
0T!
1U!
1(!
14!
05!
1<!
0=!
1@!
0A!
0H!
1I!
0L!
0!!
0~
1|
1{
1y
1v
1$!
0#!
0"!
1w
1L!
0D!
0@!
18!
09!
0k
0l
1n
1o
1q
1t
1u
0i
0j
1s
1z
0|
0}
1!!
0<!
1F
1E
1C
1A
1@
0>
0=
0<
0;
1:
1p
0n
0m
1k
0{
1B
0@
0?
1=
0o
0A
