quartus/simulation/qsim/and_gate.msim.vcd
$comment
	File created using the following command:
		vcd file and_gate.msim.vcd -direction
$end
$date
	Sat Oct 26 10:41:17 2019
$end
$version
	ModelSim Version 10.5b
$end
$timescale
	1ps
$end

$scope module and_gate_vhd_vec_tst $end
$var wire 1 ! a $end
$var wire 1 " b $end
$var wire 1 # z $end

$scope module i1 $end
$var wire 1 $ gnd $end
$var wire 1 % vcc $end
$var wire 1 & unknown $end
$var wire 1 ' devoe $end
$var wire 1 ( devclrn $end
$var wire 1 ) devpor $end
$var wire 1 * ww_devoe $end
$var wire 1 + ww_devclrn $end
$var wire 1 , ww_devpor $end
$var wire 1 - ww_a $end
$var wire 1 . ww_b $end
$var wire 1 / ww_z $end
$var wire 1 0 \z~output_o\ $end
$var wire 1 1 \a~input_o\ $end
$var wire 1 2 \b~input_o\ $end
$var wire 1 3 \z~0_combout\ $end
$upscope $end
$upscope $end
$enddefinitions $end
#0
$dumpvars
0!
0"
0#
0$
1%
x&
1'
1(
1)
1*
1+
1,
0-
0.
0/
00
01
02
03
$end
#50000
1"
1.
12
#60000
1!
1-
11
13
10
1/
1#
#100000
0"
0.
02
03
00
0/
0#
#150000
1"
1.
12
13
10
1/
1#
#200000
0"
0.
02
03
00
0/
0#
#250000
1"
1.
12
13
10
1/
1#
#260000
0!
0-
01
03
00
0/
0#
#300000
0"
0.
02
#350000
1"
1.
12
#400000
0"
0.
02
#450000
1"
1.
12
#500000
0"
0.
02
#550000
1"
1.
12
#600000
0"
0.
02
#650000
1"
1.
12
#680000
1!
1-
11
13
10
1/
1#
#700000
0"
0.
02
03
00
0/
0#
#750000
1"
1.
12
13
10
1/
1#
#800000
0"
0!
0.
0-
01
02
03
00
0/
0#
#850000
1"
1.
12
#900000
0"
0.
02
#950000
1"
1.
12
